[
  {
    "id": 0,
    "name": "HDMI-A",
    "type": "vi",
    "enable": true,
    "enable2": false,
    "interface": "HDMI-A",
    "cap": {
      "deinterlace": false,
      "crop": {
        "L": 0,
        "R": 0,
        "T": 0,
        "B": 0
      }
    },
    "encv": {
      "width": 1920,
      "height": 1080,
      "framerate": 30,
      "bitrate": 4000,
      "rcmode": "avbr",
      "gop": 2,
      "codec": "h264",
      "profile": "high",
      "gopmode": 0
    },
    "encv2": {
      "width": 640,
      "height": 360,
      "framerate": 30,
      "bitrate": 1000,
      "rcmode": "avbr",
      "gop": 1,
      "codec": "h264",
      "profile": "high",
      "gopmode": 0
    },
    "enca": {
      "audioSrc": "hdmi",
      "gain": 0,
      "codec": "aac",
      "samplerate": 48000,
      "bitrate": 32,
      "channels": 2
    },
    "stream": {
      "http": false,
      "hls": false,
      "rtmp": true,
      "rtsp": false,
      "udp": {
        "ttl": 5,
        "flowCtrl": true,
        "bandwidth": 100,
        "enable": false,
        "ip": "233.233.2.1",
        "port": 3000
      },
      "push": {
        "enable": false,
        "path": "rtmp://127.0.0.1/live/test0"
      }
    },
    "stream2": {
      "http": false,
      "hls": false,
      "rtmp": false,
      "rtsp": false,
      "udp": {
        "ttl": 5,
        "flowCtrl": true,
        "bandwidth": 100,
        "enable": false,
        "ip": "233.233.3.1",
        "port": 3000
      },
      "push": {
        "enable": false,
        "path": "rtmp://127.0.0.1/live/test0"
      }
    },
    "ts": {
      "mpegts_service_id": 1,
      "mpegts_original_network_id": 1,
      "mpegts_transport_stream_id": 1,
      "mpegts_pmt_start_pid": 4096,
      "mpegts_start_pid": 100
    },
    "overlay": [
      {
        "type": "text",
        "enable": false,
        "font": "/link/res/font.ttf",
        "content": "test",
        "x": 0.1,
        "y": 0.136,
        "scale": 2.2,
        "color": "#669900",
        "alpha": 1,
        "move": -1,
        "w": 0.515
      },
      {
        "type": "pic",
        "enable": false,
        "content": "/link/res/logo.png",
        "x": 0.1,
        "y": 0.1,
        "scale": 1,
        "alpha": 1
      },
      {
        "type": "mask",
        "enable": false,
        "content": "16",
        "x": 0.4,
        "y": 0.4,
        "w": 0.2,
        "h": 0.2
      },
      {
        "type": "pic",
        "x": 0,
        "y": 0,
        "h": 0,
        "w": 0,
        "scale": 0.5,
        "content": "/link/res/hacky_days.png",
        "enable": true,
        "color": "#000000",
        "alpha": 1,
        "font": ""
      }
    ]
  },
  {
    "id": 1,
    "name": "HDMI-B",
    "type": "vi",
    "enable": true,
    "enable2": false,
    "interface": "HDMI-B",
    "cap": {
      "deinterlace": false,
      "crop": {
        "L": 0,
        "R": 0,
        "T": 0,
        "B": 0
      }
    },
    "encv": {
      "width": 1920,
      "height": 1080,
      "framerate": 30,
      "bitrate": 4000,
      "rcmode": "avbr",
      "gop": 2,
      "codec": "h264",
      "profile": "high",
      "gopmode": 0
    },
    "encv2": {
      "width": 640,
      "height": 360,
      "framerate": 30,
      "bitrate": 1000,
      "rcmode": "avbr",
      "gop": 1,
      "codec": "h264",
      "profile": "high",
      "gopmode": 0
    },
    "enca": {
      "audioSrc": "hdmi",
      "gain": 0,
      "codec": "aac",
      "samplerate": 48000,
      "bitrate": 32,
      "channels": 2
    },
    "stream": {
      "http": false,
      "hls": false,
      "rtmp": true,
      "rtsp": false,
      "udp": {
        "ttl": 5,
        "flowCtrl": true,
        "bandwidth": 100,
        "enable": false,
        "ip": "233.233.2.1",
        "port": 3001
      },
      "push": {
        "enable": false,
        "path": "rtmp://127.0.0.1/live/test1"
      }
    },
    "stream2": {
      "http": false,
      "hls": false,
      "rtmp": false,
      "rtsp": false,
      "udp": {
        "ttl": 5,
        "flowCtrl": true,
        "bandwidth": 100,
        "enable": false,
        "ip": "233.233.3.1",
        "port": 3001
      },
      "push": {
        "enable": false,
        "path": "rtmp://127.0.0.1/live/test0"
      }
    },
    "ts": {
      "mpegts_service_id": 1,
      "mpegts_original_network_id": 1,
      "mpegts_transport_stream_id": 1,
      "mpegts_pmt_start_pid": 4096,
      "mpegts_start_pid": 102
    },
    "overlay": [
      {
        "type": "text",
        "x": 0.227,
        "y": 0.513,
        "h": 0,
        "w": 0.645,
        "scale": 4,
        "content": "test",
        "enable": false,
        "color": "#fa0b0b",
        "alpha": 1,
        "font": "/link/res/font.ttf",
        "move": 0
      },
      {
        "type": "time",
        "x": 0,
        "y": 0,
        "h": 0,
        "w": 0,
        "scale": 1,
        "content": "",
        "enable": false,
        "color": "#000000",
        "alpha": 1,
        "font": ""
      }
    ]
  },
  {
    "id": 2,
    "name": "HDMI-C",
    "type": "vi",
    "enable": true,
    "enable2": false,
    "interface": "HDMI-C",
    "cap": {
      "deinterlace": false,
      "crop": {
        "L": 0,
        "R": 0,
        "T": 0,
        "B": 0
      }
    },
    "encv": {
      "width": 1920,
      "height": 1080,
      "framerate": 30,
      "bitrate": 4000,
      "rcmode": "avbr",
      "gop": 2,
      "codec": "h264",
      "profile": "high",
      "gopmode": 0
    },
    "encv2": {
      "width": 640,
      "height": 360,
      "framerate": 30,
      "bitrate": 1000,
      "rcmode": "avbr",
      "gop": 1,
      "codec": "h264",
      "profile": "high",
      "gopmode": 0
    },
    "enca": {
      "audioSrc": "hdmi",
      "gain": 0,
      "codec": "aac",
      "samplerate": 48000,
      "bitrate": 32,
      "channels": 2
    },
    "stream": {
      "http": false,
      "hls": false,
      "rtmp": true,
      "rtsp": false,
      "udp": {
        "ttl": 5,
        "flowCtrl": true,
        "bandwidth": 100,
        "enable": false,
        "ip": "233.233.2.1",
        "port": 3002
      },
      "push": {
        "enable": false,
        "path": "rtmp://127.0.0.1/live/test2"
      }
    },
    "stream2": {
      "http": false,
      "hls": false,
      "rtmp": false,
      "rtsp": false,
      "udp": {
        "ttl": 5,
        "flowCtrl": true,
        "bandwidth": 100,
        "enable": false,
        "ip": "233.233.3.1",
        "port": 3002
      },
      "push": {
        "enable": false,
        "path": "rtmp://127.0.0.1/live/test0"
      }
    },
    "ts": {
      "mpegts_service_id": 1,
      "mpegts_original_network_id": 1,
      "mpegts_transport_stream_id": 1,
      "mpegts_pmt_start_pid": 4096,
      "mpegts_start_pid": 104
    },
    "overlay": []
  },
  {
    "id": 3,
    "name": "HDMI-D",
    "type": "vi",
    "enable": true,
    "enable2": false,
    "interface": "HDMI-D",
    "cap": {
      "deinterlace": false,
      "crop": {
        "L": 0,
        "R": 0,
        "T": 0,
        "B": 0
      }
    },
    "encv": {
      "width": 1920,
      "height": 1080,
      "framerate": 30,
      "bitrate": 4000,
      "rcmode": "avbr",
      "gop": 2,
      "codec": "h264",
      "profile": "high",
      "gopmode": 0
    },
    "encv2": {
      "width": 640,
      "height": 360,
      "framerate": 30,
      "bitrate": 1000,
      "rcmode": "avbr",
      "gop": 1,
      "codec": "h264",
      "profile": "high",
      "gopmode": 0
    },
    "enca": {
      "audioSrc": "hdmi",
      "gain": 0,
      "codec": "aac",
      "samplerate": 48000,
      "bitrate": 32,
      "channels": 2
    },
    "stream": {
      "http": false,
      "hls": false,
      "rtmp": true,
      "rtsp": false,
      "udp": {
        "ttl": 5,
        "flowCtrl": true,
        "bandwidth": 100,
        "enable": false,
        "ip": "233.233.2.1",
        "port": 3003
      },
      "push": {
        "enable": false,
        "path": "rtmp://127.0.0.1/live/test3"
      }
    },
    "stream2": {
      "http": false,
      "hls": false,
      "rtmp": false,
      "rtsp": false,
      "udp": {
        "ttl": 5,
        "flowCtrl": true,
        "bandwidth": 100,
        "enable": false,
        "ip": "233.233.3.1",
        "port": 3003
      },
      "push": {
        "enable": false,
        "path": "rtmp://127.0.0.1/live/test0"
      }
    },
    "ts": {
      "mpegts_service_id": 1,
      "mpegts_original_network_id": 1,
      "mpegts_transport_stream_id": 1,
      "mpegts_pmt_start_pid": 4096,
      "mpegts_start_pid": 106
    },
    "overlay": []
  },
  {
    "id": 4,
    "name": "HDMI-E",
    "type": "vi",
    "enable": true,
    "enable2": false,
    "interface": "HDMI-E",
    "cap": {
      "deinterlace": false,
      "crop": {
        "L": 0,
        "R": 0,
        "T": 0,
        "B": 0
      }
    },
    "encv": {
      "width": 1920,
      "height": 1080,
      "framerate": 30,
      "bitrate": 4000,
      "rcmode": "avbr",
      "gop": 2,
      "codec": "h264",
      "profile": "high",
      "gopmode": 0
    },
    "encv2": {
      "width": 640,
      "height": 360,
      "framerate": 30,
      "bitrate": 1000,
      "rcmode": "avbr",
      "gop": 1,
      "codec": "h264",
      "profile": "high",
      "gopmode": 0
    },
    "enca": {
      "audioSrc": "hdmi",
      "gain": 0,
      "codec": "aac",
      "samplerate": 48000,
      "bitrate": 32,
      "channels": 2
    },
    "stream": {
      "http": false,
      "hls": false,
      "rtmp": true,
      "rtsp": false,
      "udp": {
        "ttl": 5,
        "flowCtrl": true,
        "bandwidth": 100,
        "enable": false,
        "ip": "233.233.2.1",
        "port": 3004
      },
      "push": {
        "enable": false,
        "path": "rtmp://127.0.0.1/live/test4"
      }
    },
    "stream2": {
      "http": false,
      "hls": false,
      "rtmp": false,
      "rtsp": false,
      "udp": {
        "ttl": 5,
        "flowCtrl": true,
        "bandwidth": 100,
        "enable": false,
        "ip": "233.233.3.1",
        "port": 3004
      },
      "push": {
        "enable": false,
        "path": "rtmp://127.0.0.1/live/test0"
      }
    },
    "ts": {
      "mpegts_service_id": 1,
      "mpegts_original_network_id": 1,
      "mpegts_transport_stream_id": 1,
      "mpegts_pmt_start_pid": 4096,
      "mpegts_start_pid": 108
    },
    "overlay": []
  },
  {
    "id": 5,
    "name": "Monitor",
    "type": "usb",
    "enable": false,
    "enable2": false,
    "alarm": {
      "enable": true,
      "thresh": 800,
      "cache": 20
    },
    "encv": {
      "width": 1920,
      "height": 1080,
      "framerate": 30,
      "bitrate": 4000,
      "rcmode": "avbr",
      "gop": 2,
      "codec": "h264",
      "profile": "high",
      "gopmode": 0
    },
    "encv2": {
      "width": 640,
      "height": 360,
      "framerate": 30,
      "bitrate": 1000,
      "rcmode": "avbr",
      "gop": 1,
      "codec": "h264",
      "profile": "high",
      "gopmode": 0
    },
    "enca": {
      "audioSrc": "hdmi",
      "gain": 0,
      "codec": "aac",
      "samplerate": 48000,
      "bitrate": 32,
      "channels": 2
    },
    "stream": {
      "http": false,
      "hls": false,
      "rtmp": false,
      "rtsp": true,
      "udp": {
        "ttl": 5,
        "flowCtrl": true,
        "bandwidth": 100,
        "enable": false,
        "ip": "233.233.2.1",
        "port": 3005
      },
      "push": {
        "enable": false,
        "path": "rtmp://127.0.0.1/live/test8"
      }
    },
    "stream2": {
      "http": false,
      "hls": false,
      "rtmp": false,
      "rtsp": false,
      "udp": {
        "ttl": 5,
        "flowCtrl": true,
        "bandwidth": 100,
        "enable": false,
        "ip": "233.233.3.1",
        "port": 3005
      },
      "push": {
        "enable": false,
        "path": "rtmp://127.0.0.1/live/test0"
      }
    },
    "ts": {
      "mpegts_service_id": 1,
      "mpegts_original_network_id": 1,
      "mpegts_transport_stream_id": 1,
      "mpegts_pmt_start_pid": 4096,
      "mpegts_start_pid": 110
    },
    "overlay": []
  },
  {
    "id": 6,
    "name": "Net1",
    "type": "net",
    "enable": false,
    "enable2": false,
    "net": {
      "bufferMode": 0,
      "framerate": -1,
      "path": "rtsp://admin:admin@192.168.1.23/cam/realmonitor?channel=1&subtype=0",
      "decode": false
    },
    "encv": {
      "width": 1920,
      "height": 1080,
      "framerate": 10,
      "bitrate": 4000,
      "rcmode": "avbr",
      "gop": 2,
      "codec": "h264",
      "profile": "high",
      "gopmode": 0
    },
    "encv2": {
      "width": 640,
      "height": 360,
      "framerate": 30,
      "bitrate": 1000,
      "rcmode": "avbr",
      "gop": 1,
      "codec": "h264",
      "profile": "high",
      "gopmode": 0
    },
    "enca": {
      "audioSrc": "hdmi",
      "gain": 0,
      "codec": "aac",
      "samplerate": 48000,
      "bitrate": 32,
      "channels": 2
    },
    "stream": {
      "http": false,
      "hls": false,
      "rtmp": true,
      "rtsp": false,
      "udp": {
        "ttl": 5,
        "flowCtrl": true,
        "bandwidth": 100,
        "enable": false,
        "ip": "233.233.2.1",
        "port": 3006
      },
      "push": {
        "enable": false,
        "path": "rtmp://127.0.0.1/live/test9"
      }
    },
    "stream2": {
      "http": false,
      "hls": false,
      "rtmp": false,
      "rtsp": false,
      "udp": {
        "ttl": 5,
        "flowCtrl": true,
        "bandwidth": 100,
        "enable": false,
        "ip": "233.233.3.1",
        "port": 3006
      },
      "push": {
        "enable": false,
        "path": "rtmp://127.0.0.1/live/test0"
      }
    },
    "ts": {
      "mpegts_service_id": 1,
      "mpegts_original_network_id": 1,
      "mpegts_transport_stream_id": 1,
      "mpegts_pmt_start_pid": 4096,
      "mpegts_start_pid": 112
    },
    "overlay": []
  },
  {
    "id": 7,
    "name": "Net2",
    "type": "net",
    "enable": false,
    "enable2": false,
    "net": {
      "bufferMode": 0,
      "framerate": -1,
      "path": "rtsp://admin:admin@192.168.1.23/cam/realmonitor?channel=1&subtype=0",
      "decode": false
    },
    "encv": {
      "width": 1920,
      "height": 1080,
      "framerate": 30,
      "bitrate": 4000,
      "rcmode": "avbr",
      "gop": 2,
      "codec": "h264",
      "profile": "high",
      "gopmode": 0
    },
    "encv2": {
      "width": 640,
      "height": 360,
      "framerate": 30,
      "bitrate": 1000,
      "rcmode": "avbr",
      "gop": 1,
      "codec": "h264",
      "profile": "high",
      "gopmode": 0
    },
    "enca": {
      "audioSrc": "hdmi",
      "gain": 0,
      "codec": "aac",
      "samplerate": 48000,
      "bitrate": 32,
      "channels": 2
    },
    "stream": {
      "http": false,
      "hls": false,
      "rtmp": true,
      "rtsp": false,
      "udp": {
        "ttl": 5,
        "flowCtrl": true,
        "bandwidth": 100,
        "enable": false,
        "ip": "233.233.2.1",
        "port": 3007
      },
      "push": {
        "enable": false,
        "path": "rtmp://127.0.0.1/live/test10"
      }
    },
    "stream2": {
      "http": false,
      "hls": false,
      "rtmp": false,
      "rtsp": false,
      "udp": {
        "ttl": 5,
        "flowCtrl": true,
        "bandwidth": 100,
        "enable": false,
        "ip": "233.233.3.1",
        "port": 3007
      },
      "push": {
        "enable": false,
        "path": "rtmp://127.0.0.1/live/test0"
      }
    },
    "ts": {
      "mpegts_service_id": 1,
      "mpegts_original_network_id": 1,
      "mpegts_transport_stream_id": 1,
      "mpegts_pmt_start_pid": 4096,
      "mpegts_start_pid": 114
    },
    "overlay": []
  },
  {
    "id": 8,
    "name": "Net3",
    "type": "net",
    "enable": false,
    "enable2": false,
    "net": {
      "bufferMode": 0,
      "framerate": -1,
      "path": "rtsp://admin:admin@192.168.1.23/cam/realmonitor?channel=1&subtype=0",
      "decode": false
    },
    "encv": {
      "width": 1920,
      "height": 1080,
      "framerate": 30,
      "bitrate": 4000,
      "rcmode": "avbr",
      "gop": 2,
      "codec": "h264",
      "profile": "high",
      "gopmode": 0
    },
    "encv2": {
      "width": 640,
      "height": 360,
      "framerate": 30,
      "bitrate": 1000,
      "rcmode": "avbr",
      "gop": 1,
      "codec": "h264",
      "profile": "high",
      "gopmode": 0
    },
    "enca": {
      "audioSrc": "hdmi",
      "gain": 0,
      "codec": "aac",
      "samplerate": 48000,
      "bitrate": 32,
      "channels": 2
    },
    "stream": {
      "http": false,
      "hls": false,
      "rtmp": true,
      "rtsp": false,
      "udp": {
        "ttl": 5,
        "flowCtrl": true,
        "bandwidth": 100,
        "enable": false,
        "ip": "233.233.2.1",
        "port": 3008
      },
      "push": {
        "enable": false,
        "path": "rtmp://127.0.0.1/live/test11"
      }
    },
    "stream2": {
      "http": false,
      "hls": false,
      "rtmp": false,
      "rtsp": false,
      "udp": {
        "ttl": 5,
        "flowCtrl": true,
        "bandwidth": 100,
        "enable": false,
        "ip": "233.233.3.1",
        "port": 3008
      },
      "push": {
        "enable": false,
        "path": "rtmp://127.0.0.1/live/test0"
      }
    },
    "ts": {
      "mpegts_service_id": 1,
      "mpegts_original_network_id": 1,
      "mpegts_transport_stream_id": 1,
      "mpegts_pmt_start_pid": 4096,
      "mpegts_start_pid": 116
    },
    "overlay": []
  },
  {
    "id": 9,
    "name": "Net4",
    "type": "net",
    "enable": false,
    "enable2": false,
    "net": {
      "bufferMode": 0,
      "framerate": -1,
      "path": "rtsp://admin:admin@192.168.1.23/cam/realmonitor?channel=1&subtype=0",
      "decode": false
    },
    "encv": {
      "width": 1920,
      "height": 1080,
      "framerate": 30,
      "bitrate": 4000,
      "rcmode": "avbr",
      "gop": 2,
      "codec": "h264",
      "profile": "high",
      "gopmode": 0
    },
    "encv2": {
      "width": 640,
      "height": 360,
      "framerate": 30,
      "bitrate": 1000,
      "rcmode": "avbr",
      "gop": 1,
      "codec": "h264",
      "profile": "high",
      "gopmode": 0
    },
    "enca": {
      "audioSrc": "hdmi",
      "gain": 0,
      "codec": "aac",
      "samplerate": 48000,
      "bitrate": 32,
      "channels": 2
    },
    "stream": {
      "http": false,
      "hls": false,
      "rtmp": true,
      "rtsp": false,
      "udp": {
        "ttl": 5,
        "flowCtrl": true,
        "bandwidth": 100,
        "enable": false,
        "ip": "233.233.2.1",
        "port": 3009
      },
      "push": {
        "enable": false,
        "path": "rtmp://127.0.0.1/live/test12"
      }
    },
    "stream2": {
      "http": false,
      "hls": false,
      "rtmp": false,
      "rtsp": false,
      "udp": {
        "ttl": 5,
        "flowCtrl": true,
        "bandwidth": 100,
        "enable": false,
        "ip": "233.233.3.1",
        "port": 3009
      },
      "push": {
        "enable": false,
        "path": "rtmp://127.0.0.1/live/test0"
      }
    },
    "ts": {
      "mpegts_service_id": 1,
      "mpegts_original_network_id": 1,
      "mpegts_transport_stream_id": 1,
      "mpegts_pmt_start_pid": 4096,
      "mpegts_start_pid": 118
    },
    "overlay": []
  },
  {
    "id": 10,
    "name": "Net5",
    "type": "net",
    "enable": false,
    "enable2": false,
    "net": {
      "bufferMode": 0,
      "framerate": -1,
      "path": "rtsp://admin:admin@192.168.1.23/cam/realmonitor?channel=1&subtype=0",
      "decode": false
    },
    "encv": {
      "width": 1920,
      "height": 1080,
      "framerate": 30,
      "bitrate": 4000,
      "rcmode": "avbr",
      "gop": 2,
      "codec": "h264",
      "profile": "high",
      "gopmode": 0
    },
    "encv2": {
      "width": 640,
      "height": 360,
      "framerate": 30,
      "bitrate": 1000,
      "rcmode": "avbr",
      "gop": 1,
      "codec": "h264",
      "profile": "high",
      "gopmode": 0
    },
    "enca": {
      "audioSrc": "hdmi",
      "gain": 0,
      "codec": "aac",
      "samplerate": 48000,
      "bitrate": 32,
      "channels": 2
    },
    "stream": {
      "http": false,
      "hls": false,
      "rtmp": true,
      "rtsp": false,
      "udp": {
        "ttl": 5,
        "flowCtrl": true,
        "bandwidth": 100,
        "enable": false,
        "ip": "233.233.2.1",
        "port": 3010
      },
      "push": {
        "enable": false,
        "path": "rtmp://127.0.0.1/live/test13"
      }
    },
    "stream2": {
      "http": false,
      "hls": false,
      "rtmp": false,
      "rtsp": false,
      "udp": {
        "ttl": 5,
        "flowCtrl": true,
        "bandwidth": 100,
        "enable": false,
        "ip": "233.233.3.1",
        "port": 3010
      },
      "push": {
        "enable": false,
        "path": "rtmp://127.0.0.1/live/test0"
      }
    },
    "ts": {
      "mpegts_service_id": 1,
      "mpegts_original_network_id": 1,
      "mpegts_transport_stream_id": 1,
      "mpegts_pmt_start_pid": 4096,
      "mpegts_start_pid": 120
    },
    "overlay": []
  },
  {
    "id": 11,
    "name": "Net6",
    "type": "net",
    "enable": false,
    "enable2": false,
    "net": {
      "bufferMode": 0,
      "framerate": -1,
      "path": "rtsp://admin:admin@192.168.1.23/cam/realmonitor?channel=1&subtype=0",
      "decode": false
    },
    "encv": {
      "width": 1920,
      "height": 1080,
      "framerate": 30,
      "bitrate": 4000,
      "rcmode": "avbr",
      "gop": 2,
      "codec": "h264",
      "profile": "high",
      "gopmode": 0
    },
    "encv2": {
      "width": 640,
      "height": 360,
      "framerate": 30,
      "bitrate": 1000,
      "rcmode": "avbr",
      "gop": 1,
      "codec": "h264",
      "profile": "high",
      "gopmode": 0
    },
    "enca": {
      "audioSrc": "hdmi",
      "gain": 0,
      "codec": "aac",
      "samplerate": 48000,
      "bitrate": 32,
      "channels": 2
    },
    "stream": {
      "http": false,
      "hls": false,
      "rtmp": true,
      "rtsp": false,
      "udp": {
        "ttl": 5,
        "flowCtrl": true,
        "bandwidth": 100,
        "enable": false,
        "ip": "233.233.2.1",
        "port": 3011
      },
      "push": {
        "enable": false,
        "path": "rtmp://127.0.0.1/live/test14"
      }
    },
    "stream2": {
      "http": false,
      "hls": false,
      "rtmp": false,
      "rtsp": false,
      "udp": {
        "ttl": 5,
        "flowCtrl": true,
        "bandwidth": 100,
        "enable": false,
        "ip": "233.233.3.1",
        "port": 3011
      },
      "push": {
        "enable": false,
        "path": "rtmp://127.0.0.1/live/test0"
      }
    },
    "ts": {
      "mpegts_service_id": 1,
      "mpegts_original_network_id": 1,
      "mpegts_transport_stream_id": 1,
      "mpegts_pmt_start_pid": 4096,
      "mpegts_start_pid": 122
    },
    "overlay": []
  },
  {
    "id": 12,
    "name": "Net7",
    "type": "net",
    "enable": false,
    "enable2": false,
    "net": {
      "bufferMode": 0,
      "framerate": -1,
      "path": "rtsp://admin:admin@192.168.1.23/cam/realmonitor?channel=1&subtype=0",
      "decode": false
    },
    "encv": {
      "width": 1920,
      "height": 1080,
      "framerate": 30,
      "bitrate": 4000,
      "rcmode": "avbr",
      "gop": 2,
      "codec": "h264",
      "profile": "high",
      "gopmode": 0
    },
    "encv2": {
      "width": 640,
      "height": 360,
      "framerate": 30,
      "bitrate": 1000,
      "rcmode": "avbr",
      "gop": 1,
      "codec": "h264",
      "profile": "high",
      "gopmode": 0
    },
    "enca": {
      "audioSrc": "hdmi",
      "gain": 0,
      "codec": "aac",
      "samplerate": 48000,
      "bitrate": 32,
      "channels": 2
    },
    "stream": {
      "http": false,
      "hls": false,
      "rtmp": true,
      "rtsp": false,
      "udp": {
        "ttl": 5,
        "flowCtrl": true,
        "bandwidth": 100,
        "enable": false,
        "ip": "233.233.2.1",
        "port": 3012
      },
      "push": {
        "enable": false,
        "path": "rtmp://127.0.0.1/live/test15"
      }
    },
    "stream2": {
      "http": false,
      "hls": false,
      "rtmp": false,
      "rtsp": false,
      "udp": {
        "ttl": 5,
        "flowCtrl": true,
        "bandwidth": 100,
        "enable": false,
        "ip": "233.233.3.1",
        "port": 3012
      },
      "push": {
        "enable": false,
        "path": "rtmp://127.0.0.1/live/test0"
      }
    },
    "ts": {
      "mpegts_service_id": 1,
      "mpegts_original_network_id": 1,
      "mpegts_transport_stream_id": 1,
      "mpegts_pmt_start_pid": 4096,
      "mpegts_start_pid": 124
    },
    "overlay": []
  },
  {
    "id": 13,
    "name": "Net8",
    "type": "net",
    "enable": false,
    "enable2": false,
    "net": {
      "bufferMode": 0,
      "framerate": -1,
      "path": "rtsp://admin:admin@192.168.1.23/cam/realmonitor?channel=1&subtype=0",
      "decode": false
    },
    "encv": {
      "width": 1920,
      "height": 1080,
      "framerate": 30,
      "bitrate": 4000,
      "rcmode": "avbr",
      "gop": 2,
      "codec": "h264",
      "profile": "high",
      "gopmode": 0
    },
    "encv2": {
      "width": 640,
      "height": 360,
      "framerate": 30,
      "bitrate": 1000,
      "rcmode": "avbr",
      "gop": 1,
      "codec": "h264",
      "profile": "high",
      "gopmode": 0
    },
    "enca": {
      "audioSrc": "hdmi",
      "gain": 0,
      "codec": "aac",
      "samplerate": 48000,
      "bitrate": 32,
      "channels": 2
    },
    "stream": {
      "http": false,
      "hls": false,
      "rtmp": true,
      "rtsp": false,
      "udp": {
        "ttl": 5,
        "flowCtrl": true,
        "bandwidth": 100,
        "enable": false,
        "ip": "233.233.2.1",
        "port": 3013
      },
      "push": {
        "enable": false,
        "path": "rtmp://127.0.0.1/live/test16"
      }
    },
    "stream2": {
      "http": false,
      "hls": false,
      "rtmp": false,
      "rtsp": false,
      "udp": {
        "ttl": 5,
        "flowCtrl": true,
        "bandwidth": 100,
        "enable": false,
        "ip": "233.233.3.1",
        "port": 3013
      },
      "push": {
        "enable": false,
        "path": "rtmp://127.0.0.1/live/test0"
      }
    },
    "ts": {
      "mpegts_service_id": 1,
      "mpegts_original_network_id": 1,
      "mpegts_transport_stream_id": 1,
      "mpegts_pmt_start_pid": 4096,
      "mpegts_start_pid": 126
    },
    "overlay": []
  },
  {
    "id": 14,
    "name": "Carousel",
    "type": "file",
    "enable": false,
    "enable2": false,
    "file": [],
    "stream": {
      "http": false,
      "hls": false,
      "rtmp": false,
      "rtsp": true,
      "udp": {
        "ttl": 5,
        "flowCtrl": true,
        "bandwidth": 100,
        "enable": false,
        "ip": "233.233.2.1",
        "port": 3014
      },
      "push": {
        "enable": false,
        "path": "rtmp://127.0.0.1/live/test17"
      }
    },
    "stream2": {
      "http": false,
      "hls": false,
      "rtmp": false,
      "rtsp": false,
      "udp": {
        "ttl": 5,
        "flowCtrl": true,
        "bandwidth": 100,
        "enable": false,
        "ip": "233.233.3.1",
        "port": 3014
      },
      "push": {
        "enable": false,
        "path": "rtmp://127.0.0.1/live/test0"
      }
    },
    "ts": {
      "mpegts_service_id": 1,
      "mpegts_original_network_id": 1,
      "mpegts_transport_stream_id": 1,
      "mpegts_pmt_start_pid": 4096,
      "mpegts_start_pid": 132
    },
    "overlay": []
  },
  {
    "id": 15,
    "name": "Mix",
    "type": "mix",
    "enable": true,
    "enable2": false,
    "encv": {
      "width": 1920,
      "height": 1080,
      "framerate": 30,
      "bitrate": 4000,
      "rcmode": "avbr",
      "gop": 2,
      "codec": "h264",
      "profile": "high",
      "gopmode": 0
    },
    "encv2": {
      "width": 640,
      "height": 360,
      "framerate": 30,
      "bitrate": 1000,
      "rcmode": "avbr",
      "gop": 1,
      "codec": "h264",
      "profile": "high",
      "gopmode": 0
    },
    "enca": {
      "codec": "aac",
      "samplerate": 48000,
      "bitrate": 32,
      "channels": 2,
      "audioSrc": "hdmi",
      "gain": 0
    },
    "output": {
      "ui": true,
      "output": "1080P60",
      "type": "hdmi"
    },
    "output2": {
      "enable": false,
      "src": 0,
      "ui": false,
      "output": "1080P60",
      "type": "vga"
    },
    "stream": {
      "http": false,
      "hls": false,
      "rtmp": true,
      "rtsp": false,
      "udp": {
        "ttl": 5,
        "flowCtrl": true,
        "bandwidth": 100,
        "enable": false,
        "ip": "233.233.2.1",
        "port": 3015
      },
      "push": {
        "enable": false,
        "path": "rtmp://127.0.0.1/live/test18"
      }
    },
    "stream2": {
      "http": false,
      "hls": false,
      "rtmp": false,
      "rtsp": false,
      "udp": {
        "ttl": 5,
        "flowCtrl": true,
        "bandwidth": 100,
        "enable": false,
        "ip": "233.233.3.1",
        "port": 3015
      },
      "push": {
        "enable": false,
        "path": "rtmp://127.0.0.1/live/test0"
      }
    },
    "ts": {
      "mpegts_service_id": 1,
      "mpegts_original_network_id": 1,
      "mpegts_transport_stream_id": 1,
      "mpegts_pmt_start_pid": 4096,
      "mpegts_start_pid": 134
    },
    "overlay": [
      {
        "type": "pic",
        "x": "0",
        "y": "0",
        "h": 0,
        "w": 0,
        "scale": "1",
        "content": "/link/res/fond_wl.png",
        "enable": true,
        "color": "#000000",
        "alpha": 1,
        "font": ""
      }
    ],
    "srcV": [
      "-1",
      "1",
      "2"
    ],
    "srcA": [
      "2"
    ],
    "layout": [
      {
        "x": 0,
        "y": 0.16666666666666666,
        "w": 0.6666666666666666,
        "h": 0.6666666666666666,
        "a": 1,
        "index": 0
      },{
        "x": 0.208,
        "y": 0.05,
        "w": 0.740,
        "h": 0.740,
        "a": 1,
        "index": 3
      }, {
        "x": 0,
        "y": 0.05,
        "w": 0.491,
        "h": 0.491,
        "a": 1,
        "index": 2
      }
      
    ]
  }
]
